{
	"dialogs": [
	{
			"path": "/stomachPain",
			"regex": "^stomach",
			"scenario": "stomachPain"
		},
		{
			"path": "/smoking",
			"regex": "^(smoke|smoking)",
			"scenario": "smoking"
		},
		{
			"path": "/botGames",
			"regex": "^(bot|games|commands)",
			"scenario": "botGames"
		},
		{
			"path": "/pegg",
			"regex": "^(sage|pegg)",
			"scenario": "sage.pegg.router"
		},
		{
			"path": "/validations",
			"regex": "^(validation|carousel)",
			"scenario": "validationsAndCarousels"
		}	
	]
}